Scrip Code,COMPANY,ISIN No.,Close Price
523395,3M India Ltd,INE470A01017,12378.65
500002,ABB India Ltd,INE117A01022,1116
512599,Adani Enterprises Ltd,INE423A01024,79.55
533096,Adani Power Ltd,INE814H01011,35.15
535755,Aditya Birla Fashion and Retail Ltd,INE647O01011,148.5
500303,Aditya Birla Nuvo Ltd,INE069A01017,1340.15
532331,Ajanta Pharma Ltd,INE031B01049,1756.5
539523,Alkem Laboratories Ltd,INE540L01014,1651.8
500008,Amara Raja Batteries Ltd,INE885A01032,861.2
508869,Apollo Hospitals Enterprise Ltd,INE437A01024,1173.4
500477,Ashok Leyland Ltd,INE208A01029,88.75
532978,Bajaj Finserv Ltd,INE918I01018,3124.9
500490,Bajaj Holdings and Investment Ltd,INE118A01012,1885.4
532149,Bank of India,INE084A01016,114.55
506285,Bayer CropScience Ltd/India,INE462A01022,4096.5
509480,Berger Paints India Ltd,INE463A01038,210.45
500049,Bharat Electronics Ltd,INE263A01016,1519.9
500493,Bharat Forge Ltd,INE465A01025,940.2
532523,Biocon Ltd,INE376G01013,998.4
526612,Blue Dart Express Ltd,INE233B01017,4594.95
532483,Canara Bank,INE476A01014,277.25
500870,Castrol India Ltd,INE172A01027,401.75
532885,Central Bank of India,INE483A01010,82.85
500830,Colgate-Palmolive India Ltd,INE259A01022,898.95
531344,Container Corp Of India,INE111A01017,1191.75
500092,CRISIL Ltd,INE007A01025,2123.35
500480,Cummins India Ltd,INE298A01020,840.65
532488,Divi's Laboratories Ltd,INE361B01024,682.95
531162,Emami Ltd,INE548C01032,1007.85
500086,Exide Industries Ltd,INE302A01020,196.85
522275,GE T&D India Ltd,INE200A01026,321.7
507815,Gillette India Ltd,INE322A01010,4207.45
500676,GlaxoSmithKline Consumer Healthcare Ltd,INE264A01014,5039.85
500660,GlaxoSmithKline Pharmaceuticals Ltd,INE159A01016,2717.05
532296,Glenmark Pharmaceuticals Ltd,INE935A01035,876.1
532754,GMR Infrastructure Ltd,INE776C01039,12.81
500164,Godrej Industries Ltd,INE233A01035,430.25
517354,Havells India Ltd,INE176B01034,412.15
500104,Hindustan Petroleum Corp Ltd,INE094A01015,517.5
500116,IDBI Bank Ltd,INE008A01015,76.35
539437,IDFC Bank Ltd,INE092T01019,63.7
535789,Indiabulls Housing Finance Limited,INE148I01020,751
532814,Indian Bank,INE562A01011,257.65
500850,Indian Hotels Co Ltd,INE053A01029,108.8
532286,Jindal Steel & Power Ltd,INE749A01030,81.05
533148,JSW Energy Ltd,INE121E01018,61.1
500228,JSW Steel Ltd,INE019A01038,194
500165,Kansai Nerolac Paints Ltd.,INE531A01024,336.6
533519,L&T Finance Holdings Ltd,INE498L01015,98.15
500253,LIC Housing Finance Ltd,INE115A01026,526.45
532720,Mahindra & Mahindra Financial Services Ltd,INE774D01024,277.2
500109,Mangalore Refinery & Petrochemicals Ltd,INE103A01014,101.5
531642,Marico Ltd,INE196A01026,257.7
500271,Max Financial Services Ltd,INE180A01020,562.35
526299,MphasiS Ltd,INE356A01018,528.6
500290,MRF Ltd,INE883A01011,52449.8
532234,National Aluminium Co Ltd,INE139A01034,75.25
513683,NLC India Ltd,INE589A01014,88.25
533273,Oberoi Realty Ltd,INE093I01010,312.05
532466,Oracle Financial Services Software Ltd,INE881D01027,3307.75
532827,Page Industries Ltd,INE761H01022,14297.6
532522,Petronet LNG Ltd,INE347G01014,371.45
500302,Piramal Enterprises Ltd,INE140A01024,1733.95
500459,Procter & Gamble Hygiene & Health Care Ltd,INE179A01014,6921.05
531500,Rajesh Exports Ltd,INE343B01030,497.55
500111,Reliance Capital Ltd,INE013A01015,457.2
532712,Reliance Communications Ltd,INE330H01018,31.2
500390,Reliance Infrastructure Ltd,INE036A01016,515.7
532939,Reliance Power Ltd,INE614G01033,44
511218,Shriram Transport Finance Co Ltd,INE721A01013,944.1
533206,SJVN Ltd,INE002L01015,32.1
500113,Steel Authority of India Ltd,INE114A01011,61.75
532733,Sun TV Network Ltd,INE424H01027,525.35
500770,Tata Chemicals Ltd,INE092A01019,519.7
500483,Tata Communications Ltd,INE151A01013,708.3
500800,Tata Global Beverages Ltd,INE192A01025,128.6
500400,Tata Power Co Ltd,INE245A01021,79.85
500420,Torrent Pharmaceuticals Ltd,INE685A01028,1295.05
532779,Torrent Power Ltd,INE813H01021,196.15
532343,TVS Motor Co Ltd,INE494B01023,401.2
532477,Union Bank of India,INE692A01016,138.75
532478,United Breweries Ltd,INE686F01025,818.1
512070,UPL Ltd,INE628A01036,729.5
532300,Wockhardt Ltd,INE049B01025,682.4
