Scrip Code,COMPANY,ISIN No.,Close Price
500002,ABB India Ltd,INE117A01022,1116
532683,AIA Engineering Ltd,INE212H01026,1373.9
500048,BEML Ltd,INE258A01016,1233.45
500049,Bharat Electronics Ltd,INE263A01016,1519.9
500103,Bharat Heavy Electricals Ltd,INE257A01026,131.65
513375,Carborundum Universal Ltd,INE120A01034,249.25
500093,Crompton Greaves Ltd,INE067A01029,64
505790,Fag Bearings India Ltd,INE513A01014,3901.4
522275,GE T&D India Ltd,INE200A01026,321.7
501455,Greaves Cotton Ltd.,INE224A01026,136.45
517354,Havells India Ltd,INE176B01034,412.15
522287,Kalpataru Power Transmission Ltd,INE220B01022,271
500252,Lakshmi Machine Works Ltd,INE269B01029,3839.6
500510,Larsen & Toubro Ltd,INE018A01030,1419.65
532756,Mahindra CIE Automotive Ltd,INE536H01010,194.65
534309,NBCC (India) Ltd,INE095N01023,266.95
533107,Reliance Defence and Engineering Ltd,INE542F01012,57.2
532710,Sadbhav Engineering Ltd,INE226H01026,271.4
500550,Siemens India Ltd,INE003A01024,1163.25
500472,SKF India Ltd,INE640A01023,1290.55
532725,Solar Industries India Ltd,INE343H01029,705.25
532667,Suzlon Energy Ltd,INE040H01021,17.04
500411,Thermax Ltd,INE152A01029,811.4
532953,V-Guard Industries Ltd,INE951I01027,185.5
533269,VA Tech Wabag Ltd,INE956G01038,497.15
532144,Welspun Corp Ltd,INE191B01025,79.1
