Scrip Code,COMPANY,ISIN No.,Close Price
500002,ABB India Ltd,INE117A01022,1116
500410,ACC Ltd,INE012A01025,1358.65
532921,Adani Ports and Special Economic Zone,INE742F01042,293.25
500425,Ambuja Cements Ltd,INE079A01024,223.35
500477,Ashok Leyland Ltd,INE208A01029,88.75
500820,Asian Paints Ltd,INE021A01026,973.85
524804,Aurobindo Pharma Ltd,INE406A01037,711.4
532215,Axis Bank Ltd,INE238A01034,451.25
532977,Bajaj Auto Ltd,INE917I01010,2796.1
500034,Bajaj Finance Ltd,INE296A01024,929.45
532134,Bank of Baroda,INE028A01039,156.05
532149,Bank of India,INE084A01016,114.55
500493,Bharat Forge Ltd,INE465A01025,940.2
500103,Bharat Heavy Electricals Ltd,INE257A01026,131.65
500547,Bharat Petroleum Corp Ltd,INE029A01011,682.35
532454,Bharti Airtel Ltd,INE397D01024,316.35
534816,Bharti Infratel Ltd.,INE121J01017,350.75
500530,Bosch Ltd,INE323A01026,21780.15
500825,Britannia Industries Ltd.,INE216A01022,3148
532321,Cadila Healthcare Ltd,INE010B01027,359.25
532483,Canara Bank,INE476A01014,277.25
500087,Cipla Ltd/India,INE059A01026,579.8
533278,Coal India Ltd,INE522F01014,309.5
500830,Colgate-Palmolive India Ltd,INE259A01022,898.95
500480,Cummins India Ltd,INE298A01020,840.65
500096,Dabur India Ltd,INE016A01026,276.8
532488,Divi's Laboratories Ltd,INE361B01024,682.95
532868,DLF Ltd,INE271C01023,131.45
500124,Dr Reddy's Laboratories Ltd,INE089A01023,2971.55
505200,Eicher Motors Ltd,INE066A01013,23006.9
500086,Exide Industries Ltd,INE302A01020,196.85
500469,Federal Bank Ltd,INE171A01029,78.5
532155,Gail India Ltd,INE129A01019,474.45
532296,Glenmark Pharmaceuticals Ltd,INE935A01035,876.1
532754,GMR Infrastructure Ltd,INE776C01039,12.81
532424,Godrej Consumer Products Ltd,INE102D01028,1530.25
500300,Grasim Industries Ltd,INE047A01021,910.3
532281,HCL Technologies Ltd,INE860A01027,849.2
500180,HDFC Bank Ltd,INE040A01026,1267.75
500182,Hero MotoCorp Ltd,INE158A01026,3133.25
500440,Hindalco Industries Ltd,INE038A01020,187.05
500104,Hindustan Petroleum Corp Ltd,INE094A01015,517.5
500696,Hindustan Unilever Ltd,INE030A01027,860.95
500188,Hindustan Zinc Ltd,INE267A01025,303.45
532873,Housing Development & Infrastructure Ltd,INE191I01012,62.65
500010,Housing Development Finance Corp,INE001A01036,1280.85
532174,ICICI Bank Ltd,INE090A01021,257.1
500116,IDBI Bank Ltd,INE008A01015,76.35
532822,Idea Cellular Ltd,INE669E01016,75.6
535789,Indiabulls Housing Finance Limited,INE148I01020,751
530965,Indian Oil Corp Ltd,INE242A01010,366.85
532187,IndusInd Bank Ltd,INE095A01012,1251.65
500209,Infosys Ltd,INE009A01021,945.1
500875,ITC Ltd,INE154A01025,259.75
532286,Jindal Steel & Power Ltd,INE749A01030,81.05
500228,JSW Steel Ltd,INE019A01038,194
500247,Kotak Mahindra Bank Ltd,INE237A01028,742.85
500510,Larsen & Toubro Ltd,INE018A01030,1419.65
500253,LIC Housing Finance Ltd,INE115A01026,526.45
500257,Lupin Ltd,INE326A01037,1503.8
532720,Mahindra & Mahindra Financial Services Ltd,INE774D01024,277.2
500520,Mahindra & Mahindra Ltd,INE101A01026,1219.95
531642,Marico Ltd,INE196A01026,257.7
532500,Maruti Suzuki India Ltd,INE585B01010,5739.15
517334,Motherson Sumi Systems Ltd,INE775A01035,330.6
500790,Nestle India Ltd,INE239A01016,5962
526371,NMDC Ltd,INE584A01023,147.05
532555,NTPC Ltd,INE733E01010,172.45
500312,Oil & Natural Gas Corp Ltd,INE213A01029,201.6
532810,Power Finance Corp Ltd,INE134E01011,134.35
532898,Power Grid Corp of India Ltd,INE752E01010,203.25
532461,Punjab National Bank,INE160A01022,131.5
500111,Reliance Capital Ltd,INE013A01015,457.2
532712,Reliance Communications Ltd,INE330H01018,31.2
500325,Reliance Industries Ltd,INE002A01018,1027.55
500390,Reliance Infrastructure Ltd,INE036A01016,515.7
532939,Reliance Power Ltd,INE614G01033,44
532955,Rural Electrification Corp Ltd,INE020B01018,141.35
511218,Shriram Transport Finance Co Ltd,INE721A01013,944.1
500550,Siemens India Ltd,INE003A01024,1163.25
500112,State Bank of India,INE062A01020,254.7
500113,Steel Authority of India Ltd,INE114A01011,61.75
524715,Sun Pharmaceutical Industries Ltd,INE044A01036,642.15
500770,Tata Chemicals Ltd,INE092A01019,519.7
532540,Tata Consultancy Services Ltd,INE467B01029,2318
500800,Tata Global Beverages Ltd,INE192A01025,128.6
500570,Tata Motors Ltd,INE155A01022,541.4
500400,Tata Power Co Ltd,INE245A01021,79.85
500470,Tata Steel Ltd,INE081A01012,464.25
532755,Tech Mahindra Ltd,INE669C01036,470.3
500114,Titan Co Ltd,INE280A01028,364.2
532538,UltraTech Cement Ltd,INE481G01011,3652.5
532477,Union Bank of India,INE692A01016,138.75
532478,United Breweries Ltd,INE686F01025,818.1
532432,United Spirits Ltd,INE854D01016,2209.05
512070,UPL Ltd,INE628A01036,729.5
500295,Vedanta Ltd,INE205A01025,252.05
507685,Wipro Ltd,INE075A01022,481.1
532648,Yes Bank Ltd,INE528G01019,1359.85
505537,Zee Entertainment Enterprises Ltd,INE256A01028,479.6
