Scrip Code,COMPANY,ISIN No.,Close Price
532628,3i INFOTECH LIMITED,INE748C01020,6.13
523395,3M India Ltd,INE470A01017,12378.65
526881,63 Moons Technologies Ltd,INE111B01023,81.15
512161,8K Miles Software Services Ltd,INE650K01021,610.2
533292,A2Z Infra Engineering Limited,INE619I01012,42.85
524348,Aarti Drugs Ltd,INE767A01016,622
524208,Aarti Industries Ltd.,INE769A01020,694.3
523204,Aban Offshore Ltd,INE421A01028,253.3
500002,ABB India Ltd,INE117A01022,1116
500488,Abbott India Ltd,INE358A01014,4441.25
500410,ACC Ltd,INE012A01025,1358.65
532268,Accelya Kale Solutions Limited,INE793A01012,1508.6
532762,Action Construction Equipment Ltd.,INE731H01025,46.5
512599,Adani Enterprises Ltd,INE423A01024,79.55
532921,Adani Ports and Special Economic Zone,INE742F01042,293.25
533096,Adani Power Ltd,INE814H01011,35.15
539254,Adani Transmission Ltd,INE931S01010,63.85
519183,ADF Foods Ltd,INE982B01019,149.55
538365,Adhunik Industries Ltd,INE452L01012,106.85
535755,Aditya Birla Fashion and Retail Ltd,INE647O01011,148.5
500303,Aditya Birla Nuvo Ltd,INE069A01017,1340.15
539056,Adlabs Entertainment Ltd,INE172N01012,75.25
500003,Aegis Logistics Ltd,INE208C01025,131.6
500215,Agro Tech Foods Ltd.,INE209A01019,487.15
532811,Ahluwalia Contracts Ltd,INE758C01029,266.9
532683,AIA Engineering Ltd,INE212H01026,1373.9
532331,Ajanta Pharma Ltd,INE031B01049,1756.5
513349,Ajmera Realty & Infra India Ltd,INE298G01027,153.85
532351,Aksh Optifibre Ltd,INE523B01011,24.4
500710,Akzo Nobel India Ltd,INE133A01011,1426.65
531082,Alankit Ltd,INE914E01040,33.6
506235,Alembic Ltd,INE426A01027,35.85
533573,Alembic Pharmaceuticals Ltd,INE901L01018,585.4
539523,Alkem Laboratories Ltd,INE540L01014,1651.8
532480,Allahabad Bank,INE428A01015,64.7
532749,AllCargo Logistics Ltd,INE418H01029,171.3
532633,Allsec Technologies Ltd,INE835G01018,416.3
521070,Alok Industries Ltd,INE270A01011,3.32
526397,Alphageo (India) Ltd,INE137C01018,865.7
500008,Amara Raja Batteries Ltd,INE885A01032,861.2
531978,Ambika Cotton Mills Ltd,INE540G01014,1186.4
500425,Ambuja Cements Ltd,INE079A01024,223.35
520077,Amtek Auto Ltd,INE130C01021,33.85
515055,Anant Raj Industries Ltd,INE242C01024,42.85
532418,Andhra Bank,INE434A01013,49.2
532141,Andhra Cement Ltd,INE666E01012,9.23
526173,Andrew Yule & Co Ltd,INE449C01025,25.7
500013,Ansal Properties & Infrastructure Ltd,INE436A01026,15.11
506260,Anuh Pharma Ltd,INE489G01022,208.6
532259,Apar Industries Ltd,INE372A01015,640.95
523694,Apcotex Industries Ltd,INE116A01024,323.95
533758,APL Apollo Tubes Ltd,INE702C01019,1044.4
508869,Apollo Hospitals Enterprise Ltd,INE437A01024,1173.4
500877,Apollo Tyres Ltd,INE438A01022,185
532475,Aptech Ltd,INE266F01018,196.2
532914,Arcotech Ltd,INE574I01027,590.75
506194,Arihant Superstructures Ltd,INE643K01018,115.95
516064,Arrow Greentech Ltd,INE570D01018,514.8
506074,Arshiya Ltd,INE968D01022,41.3
500101,Arvind Limited,INE034A01011,365.7
539301,Arvind SmartSpaces Ltd,INE034S01021,73.3
515030,Asahi India Glass Ltd,INE439A01020,198.3
535467,Ashapura Intimates Fashion Ltd.,INE428O01016,434.5
527001,Ashapura Minechem Ltd.,INE348A01023,69.25
523716,Ashiana Housing Ltd,INE365D01021,143.45
500477,Ashok Leyland Ltd,INE208A01029,88.75
533271,Ashoka Buildcon Ltd,INE442H01029,172.55
532888,Asian Granito Limited,INE022I01019,274
500820,Asian Paints Ltd,INE021A01026,973.85
533138,Astec Lifesciences Limited,INE563J01010,599.2
532493,Astra Microwave Products Ltd.,INE386C01029,124.75
532830,Astral Polytechnik Ltd,INE006I01046,379.2
506820,AstraZeneca Pharm India,INE203A01020,960.25
532759,Atlanta Ltd/India,INE285H01022,73.25
531795,Atul Auto Ltd,INE951D01028,433.5
500027,Atul Ltd.,INE100A01010,2130.1
532668,AurionPro Solutions Ltd,INE132H01018,139.2
524804,Aurobindo Pharma Ltd,INE406A01037,711.4
512573,Avanti Feeds Ltd,INE871C01020,578.35
532215,Axis Bank Ltd,INE238A01034,451.25
532395,AXISCADES Engineering Technologies Ltd,INE555B01013,189.5
508933,AYM Syntex Ltd,INE193B01039,91.3
532719,B L Kashyap & Sons Ltd,INE350H01032,20.7
532977,Bajaj Auto Ltd,INE917I01010,2796.1
533229,Bajaj Corp Ltd,INE933K01021,393.25
500031,Bajaj Electricals Ltd,INE193E01025,232
500034,Bajaj Finance Ltd,INE296A01024,929.45
532978,Bajaj Finserv Ltd,INE918I01018,3124.9
500032,Bajaj Hindusthan Sugar Ltd,INE306A01021,14.4
500490,Bajaj Holdings and Investment Ltd,INE118A01012,1885.4
530999,Balaji Amines Ltd,INE050E01027,363.15
532382,Balaji Telefilms Ltd,INE794B01026,91.5
502355,Balkrishna Industries Ltd,INE787D01026,1129.35
500102,Ballarpur Industries Ltd,INE294A01037,16.25
523319,Balmer Lawrie & Co. Ltd.,INE164A01016,224.4
500038,Balrampur Chini Mills Ltd,INE119A01028,140.15
500039,Banco Products India Ltd,INE213C01025,203.5
532134,Bank of Baroda,INE028A01039,156.05
532149,Bank of India,INE084A01016,114.55
532525,Bank Of Maharashtra,INE457A01014,29.3
500041,Bannari Amman Sugars Ltd.,INE459A01010,2070
500042,BASF India Limited,INE373A01013,1183.55
500043,Bata India Ltimited,INE176A01028,464.7
506285,Bayer CropScience Ltd/India,INE462A01022,4096.5
500048,BEML Ltd,INE258A01016,1233.45
509480,Berger Paints India Ltd,INE463A01038,210.45
533303,BF Investment Ltd,INE878K01010,151
532430,BF Utilities Ltd,INE243D01012,385.9
532930,BGR Energy Systems Ltd,INE661I01014,133.9
500052,Bhansali Engineering Polymers Ltd,INE922A01025,23.65
503960,Bharat Bijlee Ltd.,INE464A01028,906.2
500049,Bharat Electronics Ltd,INE263A01016,1519.9
533228,Bharat Financial Inclusion Ltd,INE180K01011,676.8
500493,Bharat Forge Ltd,INE465A01025,940.2
500103,Bharat Heavy Electricals Ltd,INE257A01026,131.65
500547,Bharat Petroleum Corp Ltd,INE029A01011,682.35
532454,Bharti Airtel Ltd,INE397D01024,316.35
534816,Bharti Infratel Ltd.,INE121J01017,350.75
526666,Bhartiya International Ltd,INE828A01016,504.45
500055,Bhushan Steel Ltd,INE824B01021,53.1
532523,Biocon Ltd,INE376G01013,998.4
500335,Birla Corp Ltd,INE340A01012,718.1
506197,Bliss Gvs Pharma Ltd,INE416D01022,152.65
526612,Blue Dart Express Ltd,INE233B01017,4594.95
500067,Blue Star Ltd,INE472A01039,505.5
524370,Bodal Chemicals Limited,INE338D01028,137.15
501425,Bombay Burmah Trading Corp Ltd.,INE050A01025,544.65
500020,Bombay Dyeing & Manufacturing Co Ltd,INE032A01023,53.5
502219,Borosil Glass Works Ltd,INE666D01014,6885.85
500530,Bosch Ltd,INE323A01026,21780.15
532929,Brigade Enterprises Ltd,INE791I01019,158.6
500825,Britannia Industries Ltd.,INE216A01022,3148
533276,BS Limited,INE043K01029,2.52
517421,Butterfly Gandhimathi Appliances Ltd,INE295F01017,190
531373,Byke Hospitality Ltd/The,INE319B01014,165
532321,Cadila Healthcare Ltd,INE010B01027,359.25
532792,Cairn India Ltd,INE910H01017,274.95
532834,Camlin Fine Sciences Ltd,INE052I01032,111.65
511196,Can Fin Homes Ltd,INE477A01012,1729.3
532483,Canara Bank,INE476A01014,277.25
532938,Capital First Ltd.,INE688I01017,591.5
538476,Capital Trade Links Ltd,INE172D01021,40.65
511505,Capital Trust Ltd,INE707C01018,447.8
524742,Caplin Point Laboratories Ltd,INE475E01026,423.15
533260,Career Point Ltd,INE521J01018,118
532282,Castex Technologies Ltd,INE068D01021,8.03
500870,Castrol India Ltd,INE172A01027,401.75
519600,CCL Products (India) Ltd.,INE421D01022,297.45
500878,CEAT Ltd,INE482A01020,1167.15
532885,Central Bank of India,INE483A01010,82.85
517544,Centum Electronics Limited,INE320B01020,666.6
500280,Century Enka Ltd.,INE485A01015,298.1
532548,Century Plyboards India Ltd,INE348B01021,180.65
500040,Century Textile & Industries Ltd,INE055A01016,838.2
532443,Cera Sanitaryware Ltd,INE739E01017,2171.85
500084,CESC Ltd,INE486A01013,736.75
500085,Chambal Fertilizers & Chemicals Ltd,INE085A01013,82.55
500110,Chennai Petroleum Corp Ltd,INE178A01016,339.4
526817,Cheviot Co Ltd,INE974B01016,950.3
511243,Cholamandalam Investment & Finance Co. Ltd.,INE121A01016,1009.95
534758,Cigniti Technologies Ltd,INE675C01017,468.5
500087,Cipla Ltd/India,INE059A01026,579.8
532210,City Union Bank Ltd.,INE491A01021,143.35
506390,Clariant Chemicals India Ltd,INE492A01029,724.25
533288,Claris Lifesciences Ltd,INE562G01018,305.85
517330,CMI Ltd,INE981B01011,176.2
533278,Coal India Ltd,INE522F01014,309.5
539436,Coffee Day Enterprises Ltd,INE335K01011,197.8
500830,Colgate-Palmolive India Ltd,INE259A01022,898.95
531344,Container Corp Of India,INE111A01017,1191.75
522295,CONTROL PRIN,INE663B01015,234.25
506395,Coromandel International Ltd,INE169A01031,327.65
532179,Corp Bank,INE112A01023,42.5
508814,Cosmo Films Ltd,INE757A01017,372.85
533144,Cox & Kings Ltd,INE008I01026,198.25
534804,Credit Analysis & Research Ltd,INE752H01013,1431.15
500092,CRISIL Ltd,INE007A01025,2123.35
500093,Crompton Greaves Ltd,INE067A01029,64
500480,Cummins India Ltd,INE298A01020,840.65
530843,Cupid Ltd,INE509F01011,292.4
532175,Cyient Ltd,INE136B01020,474.45
533146,D-Link India Ltd,INE250K01012,124.2
500096,Dabur India Ltd,INE016A01026,276.8
533309,Dalmia Bharat Ltd,INE439L01019,1836.55
500097,Dalmia Bharat Sugar and Industries Ltd,INE495A01022,183.85
532528,Datamatics Global Services Ltd,INE365B01017,154.15
533160,DB Realty Ltd,INE879I01012,40.65
532772,DCB Bank Ltd,INE503A01015,119.1
523367,DCM Shriram Ltd,INE499A01024,264.75
500117,DCW Ltd,INE500A01029,36.2
502137,Deccan Cements Ltd,INE583C01013,999.3
512068,Deccan Gold Mines Ltd,INE945F01025,43.8
532760,Deep Industries Ltd,INE677H01012,299.9
500645,Deepak Fertilisers & Petrochemicals Corp. Ltd.,INE501A01019,261.9
506401,Deepak Nitrite Limited,INE288B01029,106.7
532848,Delta Corp. Ltd.,INE124G01033,121.85
533137,Den Networks Ltd,INE947J01015,87.85
532121,Dena Bank,INE077A01010,33.9
511072,Dewan Housing Finance Corp Ltd,INE202B01012,277.4
519588,DFM Foods Ltd,INE456C01012,2066.4
500119,Dhampur Sugar Mills Ltd.,INE041A01016,169.75
532180,Dhanlaxmi Bank Ltd,INE680A01011,24.05
507717,Dhanuka Agritech Ltd,INE435G01025,738.45
523736,Dhunseri Petrochem Ltd,INE477B01010,79.3
522163,Diamond Power Infrastructure Ltd,INE989C01012,43.1
500089,DIC India Ltd,INE303A01010,497.2
532839,Dish TV India Ltd,INE836F01026,85.95
532526,Dishman Pharmaceuticals & Chemicals Ltd,INE353G01020,231.9
532488,Divi's Laboratories Ltd,INE361B01024,682.95
532868,DLF Ltd,INE271C01023,131.45
500124,Dr Reddy's Laboratories Ltd,INE089A01023,2971.55
539524,Dr. Lal PathLabs Ltd,INE600L01024,1114.05
523618,Dredging Corp Of India,INE506A01018,446.05
532610,Dwarikesh Sugar Industries Ltd,INE366A01033,404.25
505242,Dynamatic Technologies Ltd.,INE221B01012,3044.85
532927,eClerx Services Ltd,INE738I01010,1495.5
532922,Edelweiss Financial Services Ltd,INE532F01054,113.45
505200,Eicher Motors Ltd,INE066A01013,23006.9
500125,EID Parry India Ltd,INE126A01031,293.7
500840,EIH Ltd,INE230A01023,99.15
500123,Elantas Beck India Ltd,INE280B01018,1830.25
505700,Elecon Engineering Co. Ltd.,INE205B01023,57.6
500128,Electrosteel Castings Ltd.,INE086A01029,28.25
533264,Electrosteel Steels Ltd,INE481K01013,5.54
522074,Elgi Equipments Ltd.,INE285A01027,190.15
531162,Emami Ltd,INE548C01032,1007.85
532219,Energy Development Company Ltd,INE306C01019,65.45
532178,Engineers India Ltd,INE510A01028,152.1
532700,Entertainment Network India,INE265F01028,776.4
523754,EPC Industrie Ltd,INE215D01010,149.5
533261,Eros International Media Ltd,INE416L01017,172.15
500495,Escorts Ltd,INE042A01014,363.15
500135,Essel Propack Ltd.,INE255A01020,250
500136,Ester Industries Ltd,INE778B01029,46.75
531508,Eveready Industries India Ltd,INE128A01029,242.15
508906,Everest Industries Ltd,INE295A01018,212.15
532511,Excel Crop Care Limited,INE223G01017,1762.7
500650,Excel Industries Ltd,INE369A01029,411.5
500086,Exide Industries Ltd,INE302A01020,196.85
505790,Fag Bearings India Ltd,INE513A01014,3901.4
530117,Fairchem Speciality Ltd,INE959A01019,547.95
531599,FDC Ltd,INE258B01022,216.65
500139,Fedders Lloyd Corp. Ltd.,INE249C01011,71.9
500469,Federal Bank Ltd,INE171A01029,78.5
532768,FIEM Industries Limited,INE737H01014,1104
533333,Fineotex Chemical Ltd,INE045J01026,32.25
500144,Finolex Cables Ltd,INE235A01022,423.85
500940,Finolex Industries Ltd,INE183A01016,454.95
532809,Firstsource Solutions Ltd,INE684F01012,40.7
533638,Flexituff International Ltd,INE060J01017,197
500033,Force Motors Ltd,INE451A01017,4273.8
532843,Fortis Healthcare Ltd.,INE061F01013,188.75
533400,Future Consumer Ltd,INE220J01025,23.45
523574,Future Enterprises Ltd,INE623B01027,18.5
570002,Future Enterprises Ltd DVR,IN9623B01058,17.25
536507,Future Lifestyle Fashions Limited,INE452O01016,165.75
507488,G M Breweries Ltd,INE075D01018,478.25
505714,Gabriel India Ltd,INE524A01029,109.3
532155,Gail India Ltd,INE129A01019,474.45
533265,Gallantt Ispat Ltd,INE528K01011,483.45
509550,Gammon India Ltd,INE259B01020,12.24
532959,Gammon Infrastructure Projects Ltd,INE181G01025,3.51
509557,Garware Wall Ropes Ltd,INE276A01018,619.25
532622,Gateway Distriparks Ltd,INE852F01015,243.25
532345,Gati Ltd,INE152B01027,118.55
532767,Gayatri Projects Ltd,INE336H01015,650.15
532309,GE Power India Ltd,INE878A01011,569.85
522275,GE T&D India Ltd,INE200A01026,321.7
530343,Genus Power Infrastructures Ltd,INE955D01029,41.8
532285,Geojit BNP Paribas Financial Services Ltd,INE007B01023,36.8
532312,Geometric Ltd,INE797A01021,259.7
500171,GHCL Ltd,INE539A01019,274.2
511676,GIC Housing Finance Ltd,INE289B01019,288.9
507815,Gillette India Ltd,INE322A01010,4207.45
532715,Gitanjali Gems,INE346H01014,71.2
500676,GlaxoSmithKline Consumer Healthcare Ltd,INE264A01014,5039.85
500660,GlaxoSmithKline Pharmaceuticals Ltd,INE159A01016,2717.05
532296,Glenmark Pharmaceuticals Ltd,INE935A01035,876.1
501848,Global Offshore Services Ltd,INE446C01013,67.3
533104,Globus Spirits Ltd,INE615I01010,87.3
532754,GMR Infrastructure Ltd,INE776C01039,12.81
500163,Godfrey Phillips India Ltd,INE260B01028,1052.65
532424,Godrej Consumer Products Ltd,INE102D01028,1530.25
500164,Godrej Industries Ltd,INE233A01035,430.25
533150,Godrej Properties Ltd,INE484J01027,324.2
538787,Goenka Business & Finance Ltd,INE997C01015,86.15
532630,Gokaldas Exports Ltd,INE887G01027,67.35
530655,Goodluck India Ltd,INE127I01024,95.2
500166,Goodricke Group Ltd,INE300A01016,247.8
500168,Goodyear (India),INE533A01012,711
532543,GP Petroleums Ltd,INE586G01017,91.05
532482,Granules India Ltd,INE101D01020,112.5
509488,Graphite India Ltd.,INE371A01025,102.25
500300,Grasim Industries Ltd,INE047A01021,910.3
505710,Grauer & Weil (India) Ltd,INE266D01021,36.05
500620,Great Eastern Shipping Co Ltd/The,INE017A01032,391.35
501455,Greaves Cotton Ltd.,INE224A01026,136.45
526797,Greenply Industries Ltd.,INE461C01038,254.8
506076,Grindwell Norton Ltd,INE536A01023,323.7
511288,GRUH Finance Ltd.,INE580B01029,336.1
532775,GTL Infrastructure Ltd,INE221H01019,4.17
509079,Gufic BioSciences Ltd,INE742B01025,56.5
530001,Gujarat Alkalies & Chemicals Ltd.,INE186A01019,395.85
524226,Gujarat Ambuja Exports Ltd,INE036B01022,91.75
523768,Gujarat Borosil Ltd,INE059C01022,88.7
500173,Gujarat Fluorochemicals,INE538A01037,480.65
539336,Gujarat Gas Ltd,INE844O01022,545.1
517300,Gujarat Industries Power,INE162A01010,111.95
532181,Gujarat Mineral Development Corp Ltd,INE131A01031,117.35
500670,Gujarat Narmada Valley Fertilizers and Chemicals Limited,INE113A01013,249.2
512579,Gujarat NRE Coke Ltd,INE110D01013,2.88
570003,Gujarat NRE Coke Ltd DVR,IN9110D01011,2.66
533248,Gujarat Pipavav Port Ltd,INE517F01014,140.1
500690,Gujarat State Fertilisers & Chemicals Ltd,INE026A01025,110.45
532702,Gujarat State Petronet Ltd,INE246F01010,154.8
538567,Gulf Oil Lubricants India Ltd,INE635Q01029,653.9
532708,GVK Power & Infrastructure Ltd,INE251H01024,5.94
533162,Hathway Cables and Datacom Ltd,INE982F01036,36.9
517354,Havells India Ltd,INE176B01034,412.15
508486,HawkiBO Cookers Ltd,INE979B01015,2608.95
517271,HBL Power Systems Ltd.,INE292B01021,41.75
500179,HCL Infosystems Ltd,INE236A01020,60.95
532281,HCL Technologies Ltd,INE860A01027,849.2
500180,HDFC Bank Ltd,INE040A01026,1267.75
509631,HEG Ltd,INE545A01016,183
500292,HeidelbergCement India Ltd.,INE578A01017,121.45
519552,Heritage Foods Ltd,INE978A01019,960.25
500182,Hero MotoCorp Ltd,INE158A01026,3133.25
524669,HESTER PHARM,INE782E01017,765
532129,Hexaware Technologies Ltd,INE093A01033,197.5
517080,High Ground Enterprise Ltd,INE361M01021,32
524735,Hikal Ltd.,INE475B01022,235.55
509675,HIL Ltd.,INE557A01011,679.85
514010,Himachal Fibres Ltd,INE723D01021,11.24
500183,Himachal Futuristic Communications Ltd,INE548A01028,13.17
500184,Himadri Speciality Chemical Ltd,INE019C01026,42.4
514043,Himatsingka Seide,INE049A01027,336.15
500440,Hindalco Industries Ltd,INE038A01020,187.05
532859,Hinduja Global Solutions Ltd,INE170I01016,536.5
500185,Hindustan Construction Co,INE549A01026,42.6
513599,Hindustan Copper,INE531E01026,66
533217,Hindustan Media Ventures Ltd,INE871K01015,269.65
500186,Hindustan Oil Exploration Co Ltd,INE345A01011,75.9
500104,Hindustan Petroleum Corp Ltd,INE094A01015,517.5
500696,Hindustan Unilever Ltd,INE030A01027,860.95
526217,Hitech Plast Ltd,INE120D01012,165.15
522064,Honda Siel Power Products Ltd,INE634A01018,1513.05
517174,Honeywell Automation India Ltd,INE671A01010,9431.95
500193,Hotel Leela Venture Ltd,INE102A01024,16.8
532873,Housing Development & Infrastructure Ltd,INE191I01012,62.65
500010,Housing Development Finance Corp,INE001A01036,1280.85
500187,HSIL Ltd,INE415A01038,296
532662,HT Media,INE501G01024,80.5
509820,Huhtamaki PPL Ltd,INE275B01026,242
532174,ICICI Bank Ltd,INE090A01021,257.1
532835,ICRA Ltd.,INE725G01011,4007.55
500116,IDBI Bank Ltd,INE008A01015,76.35
532822,Idea Cellular Ltd,INE669E01016,75.6
539437,IDFC Bank Ltd,INE092T01019,63.7
532659,IDFC Limited,INE043D01016,58.55
505726,IFB Industries Ltd,INE559A01017,505.55
500106,IFCI Ltd,INE039A01010,27.75
500199,IG Petrochemicals Ltd,INE204A01010,244.65
517380,Igarashi Motors India Ltd,INE188B01013,709.3
532636,IIFL Holdings Ltd,INE530B01024,285.1
532907,IL&FS Engineering & Construction Co. Ltd,INE369I01014,46.35
511208,IL&FS Investment Managers Ltd.,INE050B01023,15.31
533177,IL&FS Transportation Networks Ltd,INE975G01012,109.25
530005,India Cements Ltd,INE383A01012,143.3
500201,India Glycols,INE560A01015,160.2
535789,Indiabulls Housing Finance Limited,INE148I01020,751
532832,Indiabulls Real Estate Ltd,INE069I01010,80.35
532960,Indiabulls Ventures Ltd,INE274G01010,21.6
532814,Indian Bank,INE562A01011,257.65
500850,Indian Hotels Co Ltd,INE053A01029,108.8
504741,Indian Hume Pipe Co Ltd,INE323C01030,373.55
530965,Indian Oil Corp Ltd,INE242A01010,366.85
532388,Indian Overseas Bank,INE565A01014,25.4
533329,Indian Terrain Fashions Ltd,INE611L01021,154.2
521016,Indo Count Industries Ltd,INE483B01026,175
500207,Indo Rama Synthetics (India) Ltd,INE156A01020,33.8
532717,Indo Tech Transformers Ltd,INE332H01014,224.6
504058,Indo-National Ltd,INE567A01010,982.3
532612,Indoco Remedies Ltd.,INE873D01024,273
533257,INDOSOLAR LIMITED,INE866K01015,7.76
532514,Indraprastha Gas Ltd,INE203G01019,930.1
532150,Indraprastha Medical Corp. Ltd.,INE681B01017,52.95
532187,IndusInd Bank Ltd,INE095A01012,1251.65
506222,INEOS Styrolution India Ltd,INE189B01011,608.45
533154,Infinite Computer Solutions India Ltd,INE486J01014,224.75
532777,Info Edge (India) Ltd.,INE663F01024,853.3
500209,Infosys Ltd,INE009A01021,945.1
500210,Ingersoll-Rand (India) Ltd,INE177A01018,666.45
532706,Inox Leisure,INE312H01016,238.85
539083,Inox Wind Ltd,INE066P01011,190.45
532851,Insecticides (India) Ltd.,INE070I01018,529.75
538835,Intellect Design Arena Ltd.,INE306R01017,143.6
539448,InterGlobe Aviation Ltd,INE646L01027,926.05
502330,International Paper APPM Ltd,INE435A01028,316.25
533181,Intrasoft Technologies Ltd,INE566K01011,397.7
524164,IOL Chemicals and Pharmaceuticals Ltd,INE485C01011,95.15
524494,Ipca Laboratories Ltd,INE571A01020,549.55
532947,IRB Infrastructure Developers Ltd,INE821I01014,217.35
533033,ISGEC Heavy Engineering Ltd,INE858B01011,4921.2
500875,ITC Ltd,INE154A01025,259.75
509496,ITD Cementation India Ltd,INE686A01026,167.15
523610,ITI Ltd,INE248A01017,51.25
530773,IVRCL Ltd,INE875A01025,4.61
532940,J Kumar Infraprojects Ltd,INE576I01022,229.2
530007,J. K. Tyre Industries Ltd,INE573A01042,127.5
506943,J.B.Chemicals & Pharmaceuticals Ltd.,INE572A01028,348.05
532644,J.K. Cement Ltd.,INE823G01014,728.95
532705,Jagran Prakashan Ltd,INE199G01027,179.55
512237,Jai Corp Ltd,INE070D01027,71.15
500219,Jain Irrigation Systems Ltd,INE175A01038,90.65
570004,Jain Irrigation Systems Ltd DVR,IN9175A01010,63.4
532532,Jaiprakash Associates Ltd,INE455F01025,10.32
532627,Jaiprakash Power Ventures Ltd,INE351F01018,3.97
532209,Jammu & Kashmir Bank Ltd,INE168A01041,63.15
520051,Jamna Auto Industries Ltd,INE039C01024,192.5
533207,Jaypee Infratech Ltd,INE099J01015,8.03
509715,Jayshree Tea & Industries Ltd,INE364A01020,112.75
514034,JBF Industries Ltd.,INE187A01017,234.65
532605,JBM Auto Components Ltd,INE927D01028,261.75
500223,JCT Ltd,INE945A01026,5.63
532617,Jet Airways India Ltd,INE802G01018,403.7
500227,Jindal Poly Films Ltd.,INE197D01010,340.85
500378,Jindal SAW Ltd,INE324A01024,60.45
539597,Jindal Stainless (Hisar) Ltd,INE455T01018,104.55
532508,Jindal Stainless Ltd.,INE220G01021,42.05
532286,Jindal Steel & Power Ltd,INE749A01030,81.05
500380,JK Lakshmi Cement Ltd,INE786A01032,354.65
532162,JK Paper Ltd.,INE789E01012,95.4
523405,JM Financial Ltd,INE780C01023,71.4
522263,JMC Projects India Ltd,INE890A01016,219.35
513691,JMT Auto Ltd,INE988E01036,19.1
523398,Johnson Controls -Hitachi Air Conditioning India Ltd,INE782A01015,1429.35
533148,JSW Energy Ltd,INE121E01018,61.1
532642,JSW Holdings Limited,INE824G01012,1510.75
500228,JSW Steel Ltd,INE019A01038,194
533155,Jubilant FoodWorks Ltd,INE797F01012,838.35
533320,Jubilant Industries Ltd,INE645L01011,392.55
530019,Jubilant Life Sciences Ltd,INE700A01033,694.2
535648,Just Dial Ltd,INE599M01018,359.1
532926,Jyothy Laboratories Ltd,INE668F01031,353.75
533192,K C P Sugar and Industries Corporation Ltd,INE790B01024,34.4
500233,Kajaria Ceramics Ltd.,INE217B01036,585.1
522259,Kalindee Rail Nirman (Engineers) Lt,INE178D01010,116.4
522287,Kalpataru Power Transmission Ltd,INE220B01022,271
500235,Kalyani Steels Ltd,INE907A01026,336.55
506525,Kanoria Chemicals & Industries Ltd,INE138C01024,75.8
500165,Kansai Nerolac Paints Ltd.,INE531A01024,336.6
532652,Karnataka Bank Ltd,INE614B01018,113.9
532899,Kaveri Seed Co Ltd,INE455I01029,489.2
539276,Kaya Ltd,INE587G01015,809
532054,KDDL Ltd,INE291D01011,200
532714,KEC International Ltd/India,INE389H01022,147.1
517569,KEI Industries Ltd,INE878B01027,137.25
519602,Kellton Tech Solutions Ltd,INE164B01022,127.1
502937,Kesoram Industries Ltd,INE087A01019,140.95
524019,Kingfa Science & Technology (India) Ltd,INE473D01015,854.95
532967,Kiri Industries Ltd,INE415I01015,335.95
500241,Kirloskar Brothers,INE732A01036,212.45
533193,Kirloskar Electric Company Ltd,INE134B01017,46
533293,Kirloskar Oil Engines Ltd,INE146L01010,332.9
521248,Kitex Garments Ltd,INE602G01020,415.75
532942,KNR Constructions Ltd,INE634I01029,184.6
512559,Kohinoor Foods Ltd,INE080B01012,90.25
523207,Kokuyo Camlin Ltd,INE760A01029,83.45
532924,Kolte-Patil Developers Ltd,INE094I01018,95.15
524280,Kopran Ltd,INE082A01010,52.65
500247,Kotak Mahindra Bank Ltd,INE237A01028,742.85
532400,KPIT Technologies Ltd,INE836A01035,135.65
532889,KPR Mill Ltd,INE930H01023,573.55
530813,KRBL Ltd,INE001B01026,351.65
533482,Kridhan Infra Limited,INE524L01026,57.65
500249,KSB Pumps Ltd,INE999A01015,644.9
532997,KSK Energy Ventures Ltd,INE143H01015,17.35
536170,Kushal Tradelink Ltd,INE647N01021,609.5
531882,Kwality Ltd,INE775B01025,141.5
533519,L&T Finance Holdings Ltd,INE498L01015,98.15
526947,La Opala Rg Ltd.,INE059D01020,469.9
500252,Lakshmi Machine Works Ltd,INE269B01029,3839.6
534690,Lakshmi Vilas Bank Ltd.,INE694C01018,138.1
532778,Lanco Infratech Ltd,INE785C01048,3.77
500510,Larsen & Toubro Ltd,INE018A01030,1419.65
500250,LG Balakrishnan & Brothers Ltd.,INE337A01034,556.7
526596,Liberty Shoes Ltd,INE557B01019,168.7
500253,LIC Housing Finance Ltd,INE115A01026,526.45
531633,Lincoln Pharmaceuticals ltd,INE405C01035,208
517518,Lloyd Electric & Engineering Ltd,INE245C01019,285.65
533343,Lovable Lingerie Ltd,INE597L01014,244.65
532783,LT Foods Ltd,INE818H01012,377.5
532796,Lumax Auto Technologies Limited,INE872H01019,470.65
517206,Lumax Industries Ltd,INE162B01018,1102.55
500257,Lupin Ltd,INE326A01037,1503.8
539542,Lux Industries Ltd,INE150G01020,739.8
532368,Lycos Internet Ltd,INE425B01027,7.94
500259,Lyka Labs Ltd,INE933A01014,62.45
534532,Lypsa Gems & Jewellery Ltd,INE142K01011,61.8
531497,Madhucon Projects Ltd.,INE378D01032,43.55
524000,Magma Fincorp Ltd.,INE511C01022,97.1
500108,Mahanagar Telephone Nigam,INE153A01019,19.95
500266,Maharashtra Scooters Ltd.,INE288A01013,1622.55
500265,Maharashtra Seamless Ltd,INE271B01025,267.9
532720,Mahindra & Mahindra Financial Services Ltd,INE774D01024,277.2
500520,Mahindra & Mahindra Ltd,INE101A01026,1219.95
532756,Mahindra CIE Automotive Ltd,INE536H01010,194.65
533088,Mahindra Holidays & Resorts India Ltd,INE998I01010,416.5
532313,Mahindra Lifespace Developers Ltd,INE813A01018,364.4
539289,Majesco Ltd,INE898S01029,389.85
513269,Man Industries (India) Ltd.,INE993A01026,48.25
533169,Man Infraconstruction Ltd,INE949H01023,41.75
500268,Manali Petrochemicals Ltd.,INE201A01024,37.5
531213,Manappuram Finance Ltd,INE522D01027,78.25
502157,Mangalam Cement Ltd,INE347A01017,273.25
532637,Mangalam Drugs and Organics Ltd,INE584F01014,159
500109,Mangalore Refinery & Petrochemicals Ltd,INE103A01014,101.5
539207,Manpasand Beverages Ltd,INE122R01018,621.5
531642,Marico Ltd,INE196A01026,257.7
524404,Marksans Pharma Ltd,INE750C01026,38.5
532500,Maruti Suzuki India Ltd,INE585B01010,5739.15
523704,Mastek Ltd,INE759A01021,196.05
500271,Max Financial Services Ltd,INE180A01020,562.35
522249,Mayur Uniquoters Ltd,INE040D01038,380.8
533152,MBL Infrastructure Ltd,INE912H01013,53.35
532654,McLeod Russel India Ltd,INE942G01012,154.3
532629,McNally Bharat Engineering Co. Ltd.,INE748A01016,61.1
532865,Meghmani Organics Ltd,INE974H01013,45.7
539126,MEP Infrastructure Developers Ltd,INE776I01010,41
526235,Mercator Ltd.,INE934B01028,45.8
500126,Merck Ltd.,INE199A01012,945.05
513335,Metalyst Forgings Ltd,INE425A01011,61.65
532850,MIC Electronics Ltd,INE287C01029,14.77
538962,Minda Corporation Ltd,INE842C01021,93.05
532539,Minda Industries Ltd,INE405E01023,343.8
532819,MindTree Ltd,INE018I01017,470.65
500279,Mirc Electronics Ltd,INE831A01028,14.28
526642,Mirza International Ltd,INE771A01026,91.4
513377,MMTC LTD,INE123F01029,65.95
533286,MOIL Ltd,INE490G01020,368.25
533080,Mold-Tek Packaging Ltd,INE893J01029,199.4
513446,Monnet Ispat & Energy Ltd,INE743C01013,26.5
524084,Monsanto India Ltd,INE274B01011,2250.1
538836,Monte Carlo Fashions Ltd,INE950M01013,408
500288,Morepen Laboratories Ltd,INE083A01026,21.35
517140,Moser Baer India Ltd,INE739A01015,8.02
517334,Motherson Sumi Systems Ltd,INE775A01035,330.6
532892,Motilal Oswal Financial Services Ltd,INE338I01027,534.05
526299,MphasiS Ltd,INE356A01018,528.6
532440,MPS Limited,INE943D01017,736.5
500290,MRF Ltd,INE883A01011,52449.8
508922,MSR India Ltd,INE331L01026,36.8
534312,MT Educare Limited,INE472M01018,133.1
534091,Multi Commodity Exchange of India Limited,INE745G01035,1176.8
520059,Munjal Auto Industries Ltd,INE672B01032,91.45
520043,Munjal Showa Ltd,INE577A01027,192.15
533398,Muthoot Finance Ltd,INE414G01012,298.2
500296,Nahar Spinning,INE290A01027,148.45
532641,Nandan Denim Ltd,INE875G01030,119.85
539551,Narayana Hrudayalaya Ltd,INE410P01011,339.75
524816,Natco Pharma Ltd,INE987B01026,638.6
532234,National Aluminium Co Ltd,INE139A01034,75.25
523630,National Fertilizers Ltd,INE870D01012,45.2
513023,Nava Bharat Ventures Ltd,INE725A01022,120.7
532504,Navin Fluorine International Ltd.,INE048G01018,2685.95
539332,Navkar Corporation Ltd,INE278M01019,172.4
508989,Navneet Education Ltd,INE060A01024,126.25
534309,NBCC (India) Ltd,INE095N01023,266.95
500294,NCC Ltd/India,INE868B01028,80
502168,NCL Industries Ltd,INE732C01016,123.7
532649,Nectar Lifesciences Ltd,INE023H01027,34.4
532864,Nelcast Ltd,INE189I01024,49.25
504112,Nelco Ltd,INE045B01015,84.75
505355,Nesco Ltd.,INE317F01027,2108.1
500790,Nestle India Ltd,INE239A01016,5962
532798,Network 18 Media & Investments Ltd,INE870H01013,35.4
524558,Neuland Laboratories Ltd,INE794A01010,973.45
532529,NEW DELHI TELEVISION LTD,INE155G01029,74.9
533098,NHPC Ltd,INE848E01016,27.75
500304,NIIT Ltd,INE161A01038,78.05
532541,NIIT Technologies Ltd,INE591G01017,435.2
530377,Nila Infrastructures Ltd,INE937C01029,14.67
523385,Nilkamal Ltd,INE310A01015,1522.25
532722,Nitco Ltd,INE858F01012,60.55
532854,Nitin Fire Protection Industries Ltd,INE489H01020,30.6
532698,Nitin Spinners,INE229H01012,79.05
513683,NLC India Ltd,INE589A01014,88.25
526371,NMDC Ltd,INE584A01023,147.05
500730,NOCIL Ltd.,INE163A01018,75.95
532481,Noida Toll Bridge Co. Ltd.,INE781B01015,13.03
500672,Novartis India Ltd,INE234A01025,685.6
530367,NRB Bearings Ltd,INE349A01021,105.25
532555,NTPC Ltd,INE733E01010,172.45
531209,Nucleus Software Exports Ltd,INE096B01018,276.4
524764,Nutraplus India Ltd,INE230G01012,62.85
533273,Oberoi Realty Ltd,INE093I01010,312.05
500312,Oil & Natural Gas Corp Ltd,INE213A01029,201.6
533106,Oil India Ltd,INE274J01014,338.6
538607,Ojas Asset Reconstruction Company Ltd,INE457P01020,1.69
526415,OK Play India Ltd,INE870B01016,132.45
531092,OM Metals Infraprojects Ltd,INE239D01028,45.6
532880,Omaxe Ltd,INE800H01010,163.25
533317,OMKAR SPECIALITY CHEMICALS LIMITED,INE474L01016,162
532944,OnMobile Global Ltd,INE809I01019,86.2
532391,Opto Circuits India Ltd,INE808B01016,10.44
532466,Oracle Financial Services Software Ltd,INE881D01027,3307.75
512626,Orbit Exports Ltd,INE231G01010,307
524372,Orchid Pharma Ltd,INE191A01019,27.85
513121,Oricon Enterprises Ltd,INE730A01022,50.85
535754,Orient Cement Ltd,INE876N01018,127.8
533263,Orient Green Power Co. Ltd,INE999K01014,11.13
502420,Orient Paper & Industries Ltd.,INE592A01026,74.85
500315,Oriental Bank Of Commerce,INE141A01014,114.25
506579,Oriental Carbon & Chemicals Ltd,INE321D01016,824.5
531859,Oriental Veneer Products Ltd,INE457G01011,268.1
532827,Page Industries Ltd,INE761H01022,14297.6
538860,Panafic Industrials Ltd,INE655P01029,13.86
508941,Panasonic Carbon India Co Ltd,INE013E01017,513.25
532780,Parsvnath Developers Ltd,INE561H01026,13.13
531120,Patel Engineering Ltd,INE244B01030,85.1
534809,PC Jeweller Ltd.,INE785M01013,396.4
513228,Pennar Industries Ltd.,INE932A01024,43.85
533179,Persistent Systems Ltd,INE262H01013,619.75
532522,Petronet LNG Ltd,INE347G01014,371.45
500680,Pfizer Ltd (India),INE182A01018,1786.25
506590,Phillips Carbon Black Ltd,INE602A01015,269.65
517296,Phoenix Lamps Ltd,INE455B01016,151.8
503100,Phoenix Mills Ltd,INE211B01039,362.9
523642,PI Industries Ltd,INE603J01030,876.6
500331,Pidilite Industries Ltd,INE318A01026,654.75
538771,Pincon Spirit Ltd,INE675G01018,75.5
531879,Pioneer Distilleries Ltd,INE889E01010,187.35
500302,Piramal Enterprises Ltd,INE140A01024,1733.95
532979,Piramal Phytocare Ltd,INE122J01015,91.75
523648,Plastiblends India Ltd,INE083C01022,493.6
532366,PNB Gilts Ltd,INE859A01011,48.9
539150,PNC Infratech Ltd,INE195J01029,105.8
532486,Pokarna Ltd,INE637C01017,1200.95
532254,Polaris Consulting & Services Ltd,INE763A01023,162.95
531768,Poly Medicure Ltd,INE205C01021,403.1
524051,Polyplex Corp. Ltd.,INE633B01018,389.65
532810,Power Finance Corp Ltd,INE134E01011,134.35
532898,Power Grid Corp of India Ltd,INE752E01010,203.25
539302,Power Mech Projects Ltd,INE211R01019,446.4
539351,Prabhat Dairy Ltd,INE302M01033,109.5
522205,Praj Industries Ltd,INE074A01025,80.55
506022,Prakash Industries Ltd.,INE603A01013,67.05
532718,Pratibha Industries Ltd,INE308H01022,13.73
539636,Precision Camshafts Ltd,INE484I01029,152.2
526247,Premier Explosives Ltd,INE863B01011,361
533274,Prestige Estates Projects Ltd,INE811K01011,166
532748,Prime Focus,INE367G01038,85.85
500338,Prism Cement Ltd,INE010A01011,93.3
500459,Procter & Gamble Hygiene & Health Care Ltd,INE179A01014,6921.05
534675,Prozone Intu Properties Ltd,INE195N01013,34.3
533344,PTC India Financial Services Ltd,INE560K01014,42.55
532524,PTC India Ltd,INE877F01012,84.7
509220,PTL Enterprises Ltd,INE034D01031,151.85
532693,Punj Lloyd Ltd,INE701B01021,20.35
533295,Punjab & Sind Bank,INE608A01012,48.55
506618,Punjab Chemicals and Crop Protection Ltd,INE277B01014,278.15
532461,Punjab National Bank,INE160A01022,131.5
532891,Puravankara Ltd,INE323I01011,46.1
532689,PVR Ltd,INE191H01014,1299.9
539678,Quick Heal Technologies Ltd,INE306L01010,269.95
532497,Radico Khaitan Ltd,INE944F01028,115.05
530047,Rai Saheb Rekhchand Mohota Spinning & Weaving Mills Ltd,INE313D01013,70.7
500339,Rain Industries Limited,INE855B01025,65.9
532826,Raj Television Network Ltd,INE952H01027,61.7
531500,Rajesh Exports Ltd,INE343B01030,497.55
500355,Rallis India Ltd,INE613A01020,222.05
500260,Ramco Cements Ltd,INE331A01037,641.15
532369,Ramco Industries Ltd.,INE614A01028,198.05
532370,Ramco Systems Ltd,INE246B01019,392.65
532527,Ramkrishna Forgings Ltd,INE399G01015,378.15
533262,Ramky Infrastructure Ltd,INE874I01013,70.55
524230,Rashtriya Chemicals & Fertilizers Ltd.,INE027A01015,56.8
520111,Ratnamani Metals & Tubes Ltd,INE703B01027,679.1
534597,RattanIndia Infrastructure Ltd,INE834M01019,2.91
533122,RattanIndia Power Ltd,INE399K01017,7.09
500330,Raymond Ltd.,INE301A01014,522.95
532805,Redington India Ltd,INE891D01026,102.85
530517,Relaxo Footwears Ltd,INE131B01039,436.85
500111,Reliance Capital Ltd,INE013A01015,457.2
532712,Reliance Communications Ltd,INE330H01018,31.2
533107,Reliance Defence and Engineering Ltd,INE542F01012,57.2
523445,Reliance Industrial Infrastructure Ltd.,INE046A01015,396.05
500325,Reliance Industries Ltd,INE002A01018,1027.55
500390,Reliance Infrastructure Ltd,INE036A01016,515.7
532939,Reliance Power Ltd,INE614G01033,44
535322,Repco Home Finance Ltd.,INE612J01015,633.65
532687,Repro India,INE461B01014,399.7
520008,Rico Auto Industries Ltd.,INE209B01025,59.45
500366,Rolta India Ltd,INE293A01013,66.75
532699,Royal Orchid Hotels Ltd,INE283H01019,83.2
532983,RPG Life Sciences Ltd,INE105J01010,481.4
533284,RPP Infra Projects Ltd,INE324L01013,312.35
517447,RS Software India Ltd,INE165B01029,104.5
500350,RSWM Ltd,INE611A01016,453.05
503169,Ruby Mills Ltd,INE301D01026,350
500368,Ruchi Soya Industries Ltd,INE619A01027,25.9
532955,Rural Electrification Corp Ltd,INE020B01018,141.35
533470,Rushil Decor Ltd,INE573K01017,690.35
539450,S H Kelkar and Company Ltd,INE500L01026,318.25
532710,Sadbhav Engineering Ltd,INE226H01026,271.4
502090,Sagar Cements Ltd,INE229C01013,691.85
507315,Sakthi Sugars Ltd,INE623A01011,41.25
517059,Salzer Electronics Ltd,INE457F01013,197.35
526725,Sandesh Ltd,INE583B01015,885.9
514234,Sangam (India) Ltd,INE495C01010,287.3
526521,Sanghi Industries Ltd.,INE999B01013,61.3
530073,Sanghvi Movers Ltd.,INE989A01024,218.8
500674,Sanofi India Ltd,INE058A01010,4184.45
504614,Sarda Energy & Minerals Ltd.,INE385C01013,251.5
532163,Saregama India Ltd,INE979A01017,240
526885,Sarla Performance Fibers Ltd,INE453D01025,62.95
532663,Sasken Communications Technologies,INE231F01020,385.15
539404,Satin Creditcare Network Ltd,INE836B01017,352.9
502175,Saurashtra Cement Ltd,INE626A01014,61.35
534139,Schneider Electric Infrastructure Ltd.,INE839M01018,146.8
526807,SEAMEC Ltd,INE497B01018,84.3
530075,Selan Exploration Technology Ltd,INE818A01017,193.05
512529,Sequent Scientific Ltd,INE807F01027,130
501423,Shaily Engineering Plastics Ltd,INE151G01010,518.55
531431,Shakti Pumps (India) Ltd,INE908D01010,159.25
509874,Shalimar Paints Ltd,INE849C01026,161.95
522034,Shanthi Gears Ltd.,INE631A01022,123.75
538666,Sharda Cropchem Limited,INE221J01015,476.95
535602,Sharda Motor Industries Ltd,INE597I01010,1133.7
538685,Shemaroo Entertainment Limited,INE363M01019,421
530549,Shilpa Medicare Ltd,INE790G01031,711.05
533389,Shilpi Cable Technologies Ltd,INE510K01019,231.8
523598,Shipping Corp of India Ltd,INE109A01011,67.25
532776,Shivam Autotech Ltd,INE637H01024,43.05
532638,Shoppers Stop Ltd,INE498B01024,297
500387,Shree Cement Ltd,INE070A01015,15670.65
539334,Shree Pushkar Chemicals & Fertilisers Ltd,INE712K01011,201.1
532670,Shree Renuka Sugars Ltd,INE087H01022,15.25
520151,Shreyas Shipping & Logistics Ltd,INE757B01015,237.85
511218,Shriram Transport Finance Co Ltd,INE721A01013,944.1
520086,Sical Logistics Ltd.,INE075B01012,230.55
500550,Siemens India Ltd,INE003A01024,1163.25
512131,Signet Industries Ltd,INE529F01027,22.7
523838,Simplex Infrastructures Ltd,INE059B01024,281.75
502742,Sintex Industries Ltd,INE429C01035,85.45
532795,Siti Networks Ltd,INE965H01011,38.8
503811,Siyaram Silk Mills Ltd,INE076B01010,1395.1
533206,SJVN Ltd,INE002L01015,32.1
500472,SKF India Ltd,INE640A01023,1290.55
538562,Skipper Ltd,INE439E01022,156.05
532419,Smartlink Networks Systems Ltd,INE178C01020,105.05
505192,SML Isuzu Ltd.,INE294B01019,1193.4
532815,SMS Pharmaceuticals Ltd,INE812G01025,90.75
538635,Snowman Logistics Limited,INE734N01019,57.2
532784,Sobha Limited,INE671H01015,258.55
532725,Solar Industries India Ltd,INE343H01029,705.25
507514,SOM Distilleries And Brewery,INE480C01012,133.9
531548,Somany Ceramics Ltd,INE355A01028,600.8
520057,Sona Koyo Steering Systems Ltd.,INE643A01035,73.05
532221,Sonata Software Ltd,INE269A01021,207.5
532679,SORIL Infra Resources Ltd,INE034H01016,107
532218,South Indian Bank Ltd,INE683A01023,21.25
500285,SpiceJet Ltd.,INE285B01017,62.4
533121,SQS India BFSI Ltd,INE201K01015,689.5
523756,SREI Infrastructure Finance Ltd,INE872A01014,86.75
503806,SRF Ltd,INE647A01010,1665.85
530943,Sri Adhikari Brothers Television,INE416A01036,289.55
513605,Srikalahasthi Pipes Ltd,INE943C01027,280.15
533569,SRS Limited,INE219H01039,5.28
533305,SRS Real Infrastructure Ltd,INE953I01023,29.5
515043,St-Gobain Sekurit India Ltd,INE068B01017,48.95
531723,Stampede Capital Limited,INE224E01028,24.95
536666,Star Ferro and Cement Ltd,INE935O01010,95.75
501061,State Bank Of Bikaner and Jaipur,INE648A01026,684.95
500112,State Bank of India,INE062A01020,254.7
532191,State Bank of Travancore,INE654A01024,535
512531,State Trading Corp of India Ltd,INE655A01013,203.8
500113,Steel Authority of India Ltd,INE114A01011,61.75
513262,Steel Strips Wheels Ltd,INE802C01017,670.2
532374,Sterlite Technologies Ltd.,INE089C01029,115.55
532531,Strides Shasun Ltd,INE939A01011,1127.2
532348,Subex Limited,INE754A01014,9.55
517168,Subros Ltd,INE287B01021,178.45
506655,Sudarshan Chemical Industries,INE659A01023,337.05
532872,Sun Pharma Advanced Research Co Ltd,INE232I01014,328
524715,Sun Pharmaceutical Industries Ltd,INE044A01036,642.15
532733,Sun TV Network Ltd,INE424H01027,525.35
500403,Sundaram Fastners,INE387A01021,315.75
532711,Sunil Hitech Engineers Ltd,INE305H01028,11.96
512179,Sunteck Realty Ltd,INE805D01026,238.3
532509,Suprajit Engineering Ltd,INE399C01030,192
509930,Supreme Industries,INE195A01028,911.85
532904,Supreme Infrastructure India Ltd,INE550H01011,110.65
500405,Supreme Petrochem Ltd.,INE663A01017,221.1
500336,Surya Roshni Ltd,INE335A01012,186.4
532782,Sutlej Textiles and Industries Limited,INE645H01019,828.8
530239,Suven Life Sciences Ltd,INE495B01038,172.4
532667,Suzlon Energy Ltd,INE040H01021,17.04
503310,Swan Energy Ltd.,INE665A01038,186.4
500407,Swaraj Engines Ltd,INE277A01016,1357.4
532051,Swelect Energy Systems Ltd,INE409B01013,379.05
517385,Symphony Ltd,INE225D01027,1204.05
524470,Syncom Formulations India Ltd,INE312C01025,1.93
532276,Syndicate Bank,INE667A01018,65.6
539143,Synergy Bizcon Limited,INE945O01019,80.8
539268,Syngene International Ltd,INE398R01022,565.35
532390,Taj GVK Hotels & Resorts Ltd.,INE586B01026,125.95
532890,Take Solutions Ltd,INE142I01023,139.9
533200,Talwalkars Better Value Fitness Ltd,INE502K01016,228.3
531426,Tamilnadu Newsprint & Papers,INE107A01015,339.7
532790,Tanla Solutions Ltd,INE483C01032,64.7
500770,Tata Chemicals Ltd,INE092A01019,519.7
532301,Tata Coffee Ltd.,INE493A01027,123.75
500483,Tata Communications Ltd,INE151A01013,708.3
532540,Tata Consultancy Services Ltd,INE467B01029,2318
500408,Tata Elxsi Ltd,INE670A01012,1505.4
500800,Tata Global Beverages Ltd,INE192A01025,128.6
501301,Tata Investment Corp Ltd,INE672A01018,577.7
513434,Tata Metaliks Ltd.,INE056C01010,355.35
500570,Tata Motors Ltd,INE155A01022,541.4
570001,Tata Motors Ltd DVR,IN9155A01020,338.7
500400,Tata Power Co Ltd,INE245A01021,79.85
513010,Tata Sponge Iron Ltd.,INE674A01014,621.8
500470,Tata Steel Ltd,INE081A01012,464.25
532371,Tata Teleservices Maharashtra Ltd,INE517B01013,5.95
523301,TCPL Packaging Ltd,INE822C01015,623.15
533553,TD Power Systems Ltd,INE419M01019,179.15
539658,TeamLease Services Ltd,INE985S01024,880.95
532755,Tech Mahindra Ltd,INE669C01036,470.3
532804,Technocraft Industries (India) Limited,INE545H01011,419.7
505400,Texmaco Infrastructure & Holdings Ltd.,INE435C01024,47.25
533326,Texmaco Rail & Engineering Ltd.,INE621L01012,111.45
532845,TGB Banquets and Hotels Ltd,INE797H01018,63.95
522073,The Hi-Tech Gears Ltd,INE127B01011,318.05
530199,Themis Medicare Ltd,INE083B01016,599.9
500411,Thermax Ltd,INE152A01029,811.4
500412,Thirumalai Chemicals Ltd,INE338A01016,782.1
500413,Thomas Cook (India) Ltd,INE332A01027,189.45
505196,TIL Ltd,INE806C01018,277.2
507205,Tilaknagar Industries Ltd,INE133E01013,14.76
532856,Time Technoplast Ltd.,INE508G01029,88.55
522113,Timken India Ltd.,INE325A01013,642.7
504966,Tinplate Co. of India Ltd.,INE422C01014,81.75
532966,Titagarh Wagons Ltd,INE615H01020,124
500114,Titan Co Ltd,INE280A01028,364.2
500420,Torrent Pharmaceuticals Ltd,INE685A01028,1295.05
532779,Torrent Power Ltd,INE813H01021,196.15
526650,Tourism Finance Corp of India Ltd,INE305A01015,57.75
532928,Transformers and Rectifiers (India) Ltd,INE763I01018,419.6
532349,Transport Corporation Of India Ltd.,INE688A01022,162.7
533540,Tree House Education and Accessories Ltd,INE040M01013,21.65
500251,Trent Ltd.,INE849A01020,247.05
505854,TRF Ltd.,INE391D01019,209.7
534369,Tribhovandas Bhimji Zaveri Ltd,INE760L01018,69.45
521064,Trident Ltd.,INE064C01014,65.95
517562,Trigyn Technologies Ltd,INE948A01012,106.15
532356,Triveni Engineering & Industries Ltd.,INE256C01024,71.6
533655,Triveni Turbine Limited,INE152M01016,118.35
517506,TTK Prestige Ltd,INE690A01010,5971.45
504973,Tube Investments Of India,INE149A01025,579.7
532515,TV Today Network,INE038F01029,272.3
532800,TV18 Broadcast Ltd,INE886H01027,36.5
532513,TVS Electronics Ltd,INE236G01019,199.8
532343,TVS Motor Co Ltd,INE494B01023,401.2
509243,TVS Srichakra Ltd,INE421C01016,3200
500464,Ucal Fuel Systems Ltd,INE139B01016,186.55
532505,UCO Bank,INE691A01018,33.55
530131,Udaipur Cement Works Ltd,INE225C01029,21.15
500148,Uflex Ltd,INE516A01017,275.2
539141,UFO Moviez India Ltd,INE527H01019,436.25
533644,Ujaas Energy Ltd,INE899L01022,45.45
532538,UltraTech Cement Ltd,INE481G01011,3652.5
506690,Unichem Laboratories Ltd,INE351A01035,275.75
532477,Union Bank of India,INE692A01016,138.75
532646,Uniply Industries Ltd,INE950G01015,219.25
507878,Unitech Ltd,INE694A01020,4.5
533171,United Bank of India,INE695A01019,20.9
532478,United Breweries Ltd,INE686F01025,818.1
532432,United Spirits Ltd,INE854D01016,2209.05
512070,UPL Ltd,INE628A01036,729.5
517146,Usha Martin Ltd,INE228A01035,19.15
513216,Uttam Galva Steels Ltd.,INE699A01011,32.6
539123,V B Industries Ltd,INE334E01017,306
532953,V-Guard Industries Ltd,INE951I01027,185.5
534976,V-Mart Retail Limited,INE665J01013,471.35
531266,V.S.T.Tillers Tractors Ltd.,INE764D01017,1820.15
533269,VA Tech Wabag Ltd,INE956G01038,497.15
519156,VADILAL INDU,INE694D01016,531.05
532156,Vaibhav Global Ltd,INE884A01019,300
511431,Vakrangee Ltd,INE051B01021,298.85
502986,Vardhman Textiles Ltd.,INE825A01012,1216.9
533156,Vascon Engineers Ltd,INE893I01013,34
500295,Vedanta Ltd,INE205A01025,252.05
523261,Venky's India Ltd,INE398A01010,489.95
539331,Veto Switchgears and Cables Ltd,INE918N01018,144.85
511389,Videocon Industries Ltd,INE703A01011,103.65
531717,Vidhi Dyestuffs Manufacturing Ltd,INE632C01026,57.3
532401,Vijaya Bank,INE705A01016,51.45
530961,Vikas Ecotech Ltd,INE806A01020,17.25
524200,Vinati Organics Ltd,INE410B01029,706.35
517015,Vindhya Telelinks Ltd,INE707A01012,667.25
532613,VIP Clothing Ltd,INE450G01024,55.25
507880,VIP Industries Ltd,INE054A01027,122.6
511726,Vipul Ltd,INE946H01037,87.2
534741,Virtual Global Education Ltd,INE247C01023,4.41
506146,Visagar Polytex Ltd,INE370E01029,2.33
509055,Visaka Industries Ltd,INE392A01013,207.6
516072,Vishnu Chemicals Ltd,INE270I01014,310.55
532660,Vivimed Labs Ltd,INE526G01021,98.85
532757,Voltamp Transformers,INE540H01012,998.05
500575,Voltas Ltd,INE226A01021,325.15
539118,VRL Logistics Ltd,INE366I01010,295.15
509966,VST Industries Ltd.,INE710A01016,2457
533023,WABCO India Ltd,INE342J01019,5242.35
507410,Walchandnagar Industries,INE711A01022,158.25
523660,Waterbase Ltd,INE054C01015,98.45
532144,Welspun Corp Ltd,INE191B01025,79.1
532553,Welspun Enterprises Ltd,INE625G01013,61.85
514162,Welspun India Ltd.,INE192B01031,78.45
500444,West Coast Paper Mills Ltd.,INE976A01021,137.9
500238,Whirlpool of India Ltd,INE716A01013,917.4
507685,Wipro Ltd,INE075A01022,481.1
532300,Wockhardt Ltd,INE049B01025,682.4
538268,Wonderla Holidays Ltd,INE066O01014,371.35
511012,Yamini Investments Company Ltd,INE457N01025,30.8
532648,Yes Bank Ltd,INE528G01019,1359.85
505537,Zee Entertainment Enterprises Ltd,INE256A01028,479.6
533287,Zee Learn Ltd,INE565L01011,44.9
532794,Zee Media Corporation Limited,INE966H01019,38.95
533339,Zen Technologies Ltd,INE251B01027,78.05
504067,Zensar Technologies Ltd,INE520A01019,919.85
505163,ZF Steering Gear India Ltd,INE116C01012,1255.85
534742,Zuari Agro Chemicals Ltd,INE840M01016,357.6
531335,Zydus Wellness Ltd,INE768C01010,860.8
