Scrip Code,COMPANY,ISIN No.,Close Price
532215,Axis Bank Ltd,INE238A01034,451.25
532454,Bharti Airtel Ltd,INE397D01024,316.35
500087,Cipla Ltd/India,INE059A01026,579.8
532868,DLF Ltd,INE271C01023,131.45
500124,Dr Reddy's Laboratories Ltd,INE089A01023,2971.55
532155,Gail India Ltd,INE129A01019,474.45
500182,Hero MotoCorp Ltd,INE158A01026,3133.25
500440,Hindalco Industries Ltd,INE038A01020,187.05
500010,Housing Development Finance Corp,INE001A01036,1280.85
532174,ICICI Bank Ltd,INE090A01021,257.1
500209,Infosys Ltd,INE009A01021,945.1
500875,ITC Ltd,INE154A01025,259.75
500247,Kotak Mahindra Bank Ltd,INE237A01028,742.85
500510,Larsen & Toubro Ltd,INE018A01030,1419.65
500257,Lupin Ltd,INE326A01037,1503.8
500520,Mahindra & Mahindra Ltd,INE101A01026,1219.95
532500,Maruti Suzuki India Ltd,INE585B01010,5739.15
532898,Power Grid Corp of India Ltd,INE752E01010,203.25
500390,Reliance Infrastructure Ltd,INE036A01016,515.7
524715,Sun Pharmaceutical Industries Ltd,INE044A01036,642.15
532540,Tata Consultancy Services Ltd,INE467B01029,2318
500570,Tata Motors Ltd,INE155A01022,541.4
500470,Tata Steel Ltd,INE081A01012,464.25
512070,UPL Ltd,INE628A01036,729.5
500295,Vedanta Ltd,INE205A01025,252.05
